item_id,effect_id,duration
26,21,82487
432,41,79264
434,20,89929
508,81,37680
421,35,97483
175,17,36311
648,88,45860
964,33,32693
959,42,94376
615,22,98301
76,39,9295
768,37,89094
479,9,80425
445,67,36768
131,19,19906
346,48,31516
86,37,97935
900,22,42664
531,66,95845
785,99,76694
398,55,65066
886,78,9492
408,86,82778
140,2,42836
785,7,65427
506,13,19369
133,16,28900
470,14,21505
966,38,40532
783,68,16500
326,32,51120
513,4,84248
260,35,61047
552,68,66513
774,80,82172
131,15,46455
754,56,28591
663,4,237
126,83,40584
957,35,48275
785,90,83800
849,35,29771
993,47,58173
882,89,14610
492,40,92967
628,10,65630
546,28,34769
341,12,52959
211,78,56839
513,83,13181
369,18,55027
98,11,73951
923,80,42164
943,48,85707
27,79,88786
1,48,94478
985,22,40885
59,86,22001
603,3,96526
58,78,75297
170,85,16987
975,12,74448
102,61,34929
312,7,99672
766,44,7085
152,30,24139
630,55,23160
331,4,32101
591,34,75090
792,54,45408
891,54,87849
189,99,27019
116,14,32919
410,84,85039
758,14,59497
242,33,38584
887,54,68928
282,26,99027
434,69,98789
594,67,39121
446,98,72473
890,85,60052
950,85,45498
307,85,48096
771,24,59458
132,24,17510
23,31,25854
218,55,46369
756,4,94538
857,26,96620
221,40,45973
291,68,4951
588,97,69609
37,38,72610
139,52,95656
740,59,26125
80,16,28736
363,50,35817
847,48,77736
51,77,63695
165,28,79561
127,86,46009
599,60,60641
575,51,28372
403,51,36562
457,85,14528
39,40,486
198,30,8144
585,63,16195
971,69,20696
675,79,5305
37,46,74402
754,79,72920
113,96,95452
718,33,78441
174,36,57127
510,39,89075
780,22,11316
162,73,21468
294,75,60590
631,70,96455
103,14,34704
773,68,61547
31,15,74018
105,3,90898
995,60,69827
201,30,66740
710,30,91290
439,39,7616
872,93,69398
268,10,39969
893,86,83184
239,54,31726
865,68,4220
875,74,71757
24,77,69630
381,94,24919
994,57,37557
41,93,13239
114,5,61830
780,8,6387
888,24,70242
734,86,98898
626,34,68750
435,41,181
356,10,16026
823,23,51939
729,14,92278
228,75,56961
42,35,36528
