recipe_id,workbench_id
472,31
367,36
184,43
700,46
676,36
649,17
427,40
132,38
27,20
256,25
519,18
162,23
577,12
695,2
554,34
486,32
342,7
84,5
545,28
622,3
559,5
5,48
395,43
328,6
641,25
599,5
465,37
277,48
192,28
338,16
117,34
388,40
57,24
407,2
191,7
620,17
499,9
333,34
167,35
125,48
174,6
238,45
291,46
392,3
474,40
142,36
117,37
653,50
76,2
511,40
340,21
131,16
405,3
549,34
449,10
266,37
531,14
332,21
441,28
29,16
662,20
298,50
686,1
136,18
508,43
59,26
500,22
179,39
239,7
153,7
65,47
115,37
384,19
452,28
250,19
622,17
509,46
97,26
169,41
39,30
555,1
83,25
378,48
498,18
530,14
661,38
208,45
300,49
229,40
362,30
188,3
599,16
366,13
357,10
605,1
112,23
657,45
38,17
93,42
667,30
480,34
452,9
246,3
22,44
615,46
603,28
129,45
189,3
668,23
624,30
40,3
2,40
664,5
630,36
572,1
329,33
83,10
487,27
63,14
317,4
488,6
159,44
9,5
309,15
488,19
218,6
254,16
12,37
321,21
380,36
683,47
473,22
39,10
416,16
39,20
213,14
100,27
555,23
456,20
151,38
146,42
65,49
424,14
672,22
641,36
202,6
673,47
45,15
140,41
318,5
644,5
455,48
176,17
407,47
563,36
654,15
351,44
400,50
692,5
544,21
175,30
451,3
282,43
139,31
365,47
245,15
36,18
424,47
273,17
374,9
324,43
426,25
483,3
396,30
364,33
408,50
5,27
134,48
622,2
511,13
550,25
375,47
523,21
651,41
425,39
605,22
625,13
600,42
693,16
583,27
318,14
149,19
663,14
679,14
543,15
408,16
174,32
324,2
130,34
175,19
506,36
188,42
97,16
109,23
684,8
528,44
248,49
205,9
326,46
298,37
551,21
293,39
583,26
102,16
404,24
680,44
664,49
59,49
388,22
495,25
669,36
344,19
559,6
570,41
204,34
100,16
504,49
519,23
575,37
416,21
50,44
349,19
664,39
648,25
138,36
473,39
698,25
585,7
540,34
374,33
29,49
221,34
264,38
275,8
12,16
297,49
675,2
62,5
198,12
95,12
64,14
313,12
112,1
293,26
388,3
414,22
539,39
409,32
320,12
597,7
470,38
537,50
354,49
397,23
552,8
255,40
312,26
544,6
484,43
342,22
415,43
219,21
599,40
165,9
115,26
28,18
194,45
454,11
424,13
641,5
194,30
331,21
472,35
208,24
374,38
332,45
297,39
274,7
115,17
44,43
294,34
484,30
178,19
335,36
36,35
685,36
441,29
474,9
392,19
96,35
511,22
225,10
415,24
459,33
188,39
401,7
237,13
75,20
598,16
85,37
273,32
213,25
481,38
481,34
303,3
12,2
563,35
469,11
519,23
83,47
183,37
550,40
604,20
193,21
26,9
4,14
320,31
549,19
171,20
110,5
465,46
8,13
596,27
218,39
365,25
277,36
470,9
33,34
276,42
269,3
319,40
217,39
389,40
52,26
221,41
556,43
323,16
120,30
439,40
456,43
272,29
135,1
642,2
123,4
92,43
608,47
632,32
351,49
249,16
692,35
429,50
514,41
449,44
687,40
243,47
592,7
375,33
570,49
68,39
590,29
330,20
503,39
70,12
208,21
169,18
168,13
49,1
157,40
79,21
343,5
465,22
630,49
142,22
533,48
641,49
482,20
488,4
651,39
10,14
366,33
448,3
236,29
672,41
99,13
252,7
84,18
445,2
589,25
340,31
204,25
209,48
590,45
305,8
162,23
653,12
214,22
488,28
648,26
26,11
490,20
45,22
394,15
5,40
359,3
523,19
347,34
27,38
495,16
369,48
320,35
124,30
429,35
201,28
503,30
321,3
509,36
542,40
216,20
112,14
304,29
519,26
367,14
370,44
238,14
453,22
131,27
122,14
469,48
81,22
283,30
677,28
556,36
156,23
476,22
661,11
594,21
49,21
109,30
439,4
563,25
57,10
236,34
597,19
416,8
572,40
69,10
495,9
251,39
168,44
385,25
108,34
523,14
636,49
337,11
351,4
337,34
263,47
370,5
156,40
551,39
385,35
211,20
476,25
593,32
140,34
368,4
659,16
481,18
422,46
451,16
173,39
486,40
446,18
507,34
299,39
384,42
201,19
147,1
556,4
418,9
97,43
77,7
673,41
402,11
59,43
555,27
508,20
632,19
81,29
143,15
76,38
493,44
53,8
665,25
279,11
586,29
659,4
651,39
509,6
339,50
410,34
182,21
484,3
210,43
403,41
512,23
537,19
122,4
583,8
68,14
28,26
313,34
438,41
326,5
320,8
16,25
385,28
368,48
90,31
317,42
352,18
366,23
232,24
61,14
11,30
391,28
604,33
597,39
149,40
164,7
464,11
134,48
172,20
441,47
394,24
261,4
352,8
58,39
275,21
303,12
63,45
440,22
569,46
347,37
491,44
370,17
384,27
657,30
670,38
257,50
396,17
311,36
356,47
412,41
465,50
70,44
442,18
506,45
463,42
508,31
585,30
581,32
258,19
357,30
438,37
197,46
29,16
237,14
396,7
603,6
30,22
700,9
699,16
374,16
450,14
275,15
223,10
7,12
699,1
42,21
674,11
203,13
395,28
7,5
416,25
79,11
5,1
78,49
12,11
364,13
305,41
440,19
399,37
400,17
293,8
163,3
320,28
696,18
53,44
232,31
203,45
214,17
49,44
246,37
667,2
202,3
196,31
183,50
585,45
163,26
615,14
682,6
108,17
450,8
227,27
53,8
403,44
586,43
300,27
502,1
585,18
685,31
393,6
135,43
611,43
617,39
354,35
601,5
300,35
204,44
358,34
224,24
650,46
564,46
88,4
366,39
496,30
430,50
410,50
642,25
281,39
269,11
300,46
295,5
606,42
327,47
287,22
443,47
349,45
114,32
319,24
116,28
677,16
116,12
88,14
654,40
304,10
138,33
542,40
168,41
153,27
245,14
638,32
312,1
220,29
32,10
506,18
480,43
366,22
214,37
436,34
414,24
254,18
678,29
638,17
287,31
166,11
552,5
292,6
282,50
440,6
26,49
592,25
87,34
140,41
345,40
333,27
635,28
325,33
337,18
326,28
685,35
683,7
675,9
178,10
386,30
670,8
184,16
677,35
654,32
140,43
103,16
272,19
572,8
78,36
144,35
639,4
445,18
464,33
622,15
264,3
99,22
423,49
1,27
101,39
655,24
660,23
494,27
496,35
25,38
448,16
545,6
366,47
420,43
159,43
177,40
99,11
174,39
667,26
568,25
15,30
349,45
232,10
481,17
663,37
43,19
224,16
21,5
607,8
240,41
330,9
445,14
275,40
352,15
668,14
213,32
165,45
695,33
474,23
263,30
95,37
369,4
101,38
590,27
122,13
618,45
311,25
556,33
532,43
34,12
354,36
386,6
459,38
176,16
693,39
6,6
321,44
432,29
286,1
140,16
119,12
532,43
254,13
699,7
290,25
518,42
465,35
388,6
602,44
137,13
334,40
554,49
433,42
179,15
194,1
519,36
27,34
208,26
190,33
298,39
287,34
668,45
148,2
108,14
316,1
392,21
446,30
693,21
428,14
356,50
211,6
68,7
26,3
412,42
353,33
421,9
463,36
573,43
118,32
607,32
102,32
540,15
370,10
179,33
383,42
359,32
112,46
622,30
210,49
333,5
668,29
41,33
41,38
575,17
513,41
235,10
421,50
446,33
697,11
557,18
373,49
566,34
651,6
161,7
402,21
633,44
623,45
519,18
247,23
235,26
695,25
213,36
262,22
696,5
472,5
158,32
598,26
168,5
376,30
433,34
551,50
334,3
586,12
666,1
454,36
506,37
399,31
170,27
649,25
686,24
495,33
555,20
518,3
524,17
548,34
669,25
511,6
429,5
610,8
445,14
161,19
530,22
69,23
314,34
499,31
315,39
84,23
69,16
377,45
46,21
505,19
329,3
179,28
688,15
28,11
200,3
172,39
121,44
302,7
645,39
539,28
516,7
638,3
358,36
515,11
661,30
497,6
44,18
64,38
697,32
294,27
182,23
177,9
216,40
437,22
398,7
198,41
441,27
633,16
448,19
294,45
4,13
223,24
493,13
267,20
197,38
233,7
373,40
263,6
188,19
120,36
506,15
525,37
48,22
136,37
27,23
151,12
433,6
611,22
447,41
386,42
494,10
515,23
10,4
130,49
403,45
88,30
155,8
192,3
287,4
694,42
679,2
281,37
27,6
437,8
657,17
554,20
658,34
269,42
267,21
66,36
541,35
269,26
618,46
332,46
588,9
610,41
204,50
446,7
598,31
542,18
482,48
644,34
137,22
654,42
169,19
682,50
222,45
503,44
93,32
462,5
454,21
354,14
454,8
365,7
543,24
662,37
187,29
476,21
552,39
198,28
432,43
297,47
132,13
615,6
453,2
228,39
592,18
243,28
326,4
