id,product_id,product_amount
1,829,16
2,386,742
3,993,398
4,313,280
5,452,797
6,850,732
7,376,613
8,144,779
9,66,934
10,36,233
11,251,881
12,481,231
13,263,509
14,666,925
15,23,437
16,885,519
17,481,364
18,874,369
19,870,872
20,728,664
21,572,759
22,957,128
23,107,945
24,806,749
25,765,627
26,752,820
27,881,869
28,254,465
29,832,358
30,517,340
31,501,968
32,987,509
33,220,469
34,159,894
35,478,915
36,860,571
37,296,278
38,726,51
39,883,628
40,997,701
41,318,250
42,428,243
43,270,674
44,964,156
45,190,341
46,801,431
47,955,439
48,300,748
49,703,311
50,576,706
51,525,679
52,518,942
53,737,346
54,201,635
55,497,299
56,577,499
57,220,337
58,539,366
59,587,488
60,650,420
61,895,331
62,144,10
63,625,621
64,242,429
65,147,758
66,576,168
67,605,310
68,847,836
69,540,254
70,600,237
71,944,966
72,440,940
73,926,614
74,109,289
75,60,764
76,768,397
77,76,533
78,587,173
79,482,208
80,491,900
81,73,53
82,808,921
83,444,980
84,403,704
85,15,227
86,107,657
87,997,591
88,545,138
89,812,704
90,373,368
91,757,701
92,527,309
93,516,359
94,420,866
95,910,397
96,48,704
97,283,304
98,55,284
99,612,875
100,724,110
101,499,705
102,720,905
103,233,960
104,393,60
105,300,720
106,812,878
107,221,928
108,122,976
109,382,578
110,919,426
111,377,806
112,782,562
113,960,338
114,136,222
115,487,679
116,250,924
117,505,662
118,807,580
119,954,926
120,16,741
121,104,636
122,136,216
123,190,974
124,597,608
125,732,100
126,612,220
127,301,762
128,114,545
129,181,343
130,358,534
131,438,734
132,249,678
133,305,967
134,261,379
135,115,112
136,379,491
137,342,90
138,9,1
139,902,815
140,153,776
141,614,891
142,633,61
143,819,361
144,231,41
145,231,197
146,645,552
147,811,168
148,766,626
149,998,386
150,591,808
151,259,869
152,96,566
153,167,548
154,304,702
155,547,741
156,302,39
157,79,275
158,527,305
159,373,793
160,968,899
161,708,861
162,460,708
163,893,883
164,832,567
165,415,600
166,469,161
167,539,720
168,764,182
169,935,152
170,345,570
171,74,859
172,801,464
173,125,151
174,577,263
175,579,394
176,846,447
177,467,338
178,295,372
179,544,396
180,328,552
181,42,366
182,891,57
183,569,422
184,912,986
185,637,67
186,178,701
187,118,941
188,688,152
189,196,548
190,781,880
191,628,706
192,999,210
193,381,808
194,569,693
195,970,880
196,870,820
197,636,590
198,461,477
199,372,395
200,671,313
201,554,625
202,638,406
203,760,918
204,647,703
205,895,913
206,808,731
207,548,710
208,17,382
209,421,577
210,864,786
211,452,357
212,343,7
213,499,370
214,621,309
215,457,580
216,416,386
217,506,8
218,457,316
219,798,76
220,795,680
221,66,116
222,896,416
223,823,19
224,916,97
225,886,851
226,73,868
227,688,471
228,787,618
229,164,618
230,959,441
231,653,739
232,478,33
233,87,841
234,711,736
235,470,191
236,499,818
237,216,781
238,800,500
239,60,435
240,732,562
241,568,775
242,864,319
243,92,208
244,574,218
245,492,99
246,508,212
247,454,452
248,711,108
249,428,624
250,527,396
251,188,423
252,122,27
253,172,30
254,370,441
255,869,903
256,311,240
257,273,819
258,938,465
259,45,229
260,345,56
261,478,909
262,187,143
263,787,914
264,403,91
265,833,745
266,382,748
267,49,283
268,641,693
269,17,824
270,810,201
271,4,510
272,529,71
273,210,63
274,452,80
275,340,806
276,753,374
277,450,308
278,765,555
279,795,65
280,324,322
281,239,211
282,35,302
283,564,198
284,144,766
285,381,386
286,781,385
287,58,132
288,790,923
289,808,717
290,190,681
291,107,427
292,462,529
293,46,750
294,190,35
295,614,294
296,702,472
297,14,255
298,624,45
299,451,469
300,184,938
301,532,198
302,608,382
303,65,712
304,869,759
305,617,235
306,426,175
307,483,656
308,505,94
309,107,101
310,620,292
311,563,227
312,585,187
313,86,237
314,317,255
315,344,263
316,990,321
317,193,453
318,364,887
319,751,791
320,846,906
321,971,40
322,418,901
323,47,913
324,677,964
325,346,23
326,189,641
327,216,380
328,42,463
329,276,742
330,260,932
331,457,367
332,217,347
333,678,492
334,408,59
335,402,912
336,169,674
337,722,7
338,182,647
339,903,837
340,690,501
341,274,815
342,545,984
343,645,875
344,22,283
345,418,424
346,643,852
347,292,546
348,528,585
349,653,746
350,682,571
351,646,335
352,157,368
353,194,829
354,141,93
355,234,15
356,645,629
357,700,728
358,70,989
359,136,295
360,776,747
361,519,607
362,912,691
363,262,605
364,430,764
365,492,387
366,422,76
367,438,842
368,99,625
369,832,585
370,506,333
371,613,712
372,903,154
373,216,869
374,836,970
375,397,945
376,514,512
377,965,628
378,881,826
379,686,868
380,278,319
381,411,876
382,478,982
383,284,328
384,791,500
385,237,649
386,150,167
387,115,851
388,501,656
389,136,683
390,1000,909
391,351,650
392,70,766
393,496,272
394,305,274
395,593,645
396,500,366
397,864,294
398,880,852
399,62,220
400,703,601
401,938,726
402,879,765
403,172,319
404,542,418
405,782,648
406,524,930
407,310,183
408,541,164
409,953,792
410,564,628
411,368,621
412,810,830
413,132,137
414,532,936
415,636,430
416,803,562
417,264,307
418,678,303
419,908,410
420,167,65
421,901,960
422,93,122
423,944,368
424,607,45
425,945,994
426,694,169
427,742,285
428,191,445
429,566,39
430,164,768
431,29,381
432,384,286
433,914,138
434,431,44
435,45,868
436,666,980
437,318,378
438,701,797
439,206,817
440,335,363
441,363,661
442,413,268
443,124,938
444,182,848
445,768,969
446,81,781
447,240,216
448,928,18
449,945,549
450,853,626
451,168,159
452,579,489
453,83,247
454,496,762
455,385,315
456,47,503
457,245,79
458,799,503
459,924,844
460,171,177
461,228,288
462,535,474
463,812,852
464,487,444
465,964,35
466,50,314
467,846,163
468,548,793
469,152,817
470,952,489
471,307,165
472,795,220
473,644,496
474,481,145
475,32,816
476,964,695
477,520,575
478,172,778
479,249,249
480,721,965
481,438,638
482,934,821
483,739,262
484,126,184
485,648,958
486,486,12
487,426,177
488,740,570
489,722,756
490,555,644
491,801,436
492,129,892
493,80,847
494,394,242
495,718,89
496,701,715
497,761,827
498,992,890
499,334,309
500,702,781
501,466,471
502,132,854
503,752,653
504,147,932
505,211,989
506,863,989
507,173,811
508,651,126
509,604,234
510,498,606
511,915,884
512,499,713
513,301,251
514,395,675
515,176,422
516,111,509
517,841,945
518,83,494
519,31,219
520,573,971
521,112,622
522,279,814
523,129,356
524,604,852
525,24,867
526,253,743
527,180,623
528,585,369
529,108,936
530,76,964
531,722,625
532,181,881
533,945,937
534,920,895
535,936,26
536,830,381
537,290,243
538,151,39
539,537,595
540,716,918
541,194,969
542,732,950
543,819,124
544,611,791
545,230,601
546,256,701
547,281,174
548,788,401
549,882,368
550,211,259
551,207,106
552,275,981
553,114,702
554,872,749
555,795,113
556,90,486
557,724,652
558,395,7
559,30,321
560,270,833
561,775,953
562,734,746
563,723,638
564,219,655
565,158,322
566,231,856
567,129,459
568,374,605
569,734,518
570,166,285
571,961,221
572,691,572
573,806,342
574,863,118
575,261,518
576,614,315
577,756,10
578,790,725
579,212,81
580,752,713
581,445,17
582,756,609
583,719,116
584,278,634
585,596,280
586,719,332
587,959,677
588,410,370
589,319,89
590,521,871
591,331,58
592,855,594
593,445,790
594,798,496
595,248,929
596,480,906
597,378,821
598,561,166
599,277,193
600,716,571
601,631,663
602,14,87
603,549,693
604,302,681
605,82,65
606,42,639
607,791,339
608,102,619
609,493,105
610,398,557
611,505,181
612,233,317
613,38,369
614,268,134
615,763,168
616,451,517
617,866,297
618,762,421
619,589,440
620,383,952
621,980,999
622,578,627
623,930,76
624,269,743
625,364,876
626,801,592
627,976,76
628,3,898
629,620,55
630,220,793
631,445,450
632,179,777
633,479,464
634,481,823
635,951,409
636,46,575
637,768,358
638,929,352
639,638,593
640,107,9
641,982,94
642,523,753
643,75,121
644,760,615
645,942,507
646,577,888
647,834,429
648,45,168
649,474,512
650,818,840
651,837,496
652,681,267
653,657,743
654,586,925
655,402,574
656,117,872
657,692,52
658,120,599
659,295,208
660,774,515
661,103,708
662,28,551
663,357,643
664,957,825
665,504,589
666,166,686
667,487,912
668,664,330
669,289,592
670,742,717
671,356,944
672,329,302
673,253,844
674,726,678
675,622,738
676,740,370
677,527,981
678,974,798
679,564,90
680,8,45
681,128,919
682,247,548
683,954,258
684,592,579
685,120,551
686,812,199
687,596,807
688,832,569
689,153,45
690,790,634
691,867,427
692,138,360
693,97,95
694,368,353
695,951,838
696,315,495
697,2,110
698,637,922
699,166,552
700,449,286
