id,name,image_id
1,aliquam,681
2,non,232
3,montes,967
4,eleifend quam a,312
5,nulla,783
6,arcu,\N
7,quisque ut erat,833
8,et,935
9,blandit lacinia,931
10,sociis,360
11,aliquam quis,403
12,convallis eget,865
13,est,347
14,ipsum,34
15,suspendisse accumsan tortor,701
16,sed vestibulum,144
17,amet eros,763
18,ligula nec,518
19,mattis nibh,508
20,nullam,987
21,sagittis,\N
22,fusce lacus,849
23,cum sociis natoque,672
24,vel,424
25,morbi non lectus,648
26,proin,681
27,nunc,735
28,elit ac nulla,316
29,et,615
30,vel,403
31,ipsum,342
32,vel,22
33,fusce lacus purus,429
34,velit eu,138
35,rhoncus aliquet,493
36,ligula vehicula,893
37,eros viverra eget,650
38,blandit,773
39,rutrum nulla,772
40,quam turpis,\N
41,adipiscing,661
42,consequat metus sapien,944
43,ante,506
44,nec dui luctus,147
45,consectetuer adipiscing elit,628
46,potenti,126
47,eu,\N
48,augue,\N
49,parturient,23
50,mauris lacinia sapien,628
